{
  "database": {
    "rules": "database.rules.json"
  },
  "hosting": {
    "site": "sap-bd",
    "public": "dist/ng-sap-web",
    "ignore": [
      "firebase.json",
      "**/.*",
      "**/node_modules/**"
    ]
  }
}
